…
## Variable name correction

There was a coding problem in the data - a variable that start with "dep_conf_b_III" appears twice. Looking at the qualtrics, one of them should in fact identify "dep_guess_b_III", i.e. the numeric guess instead of a confidence rating. We identify this column looking at the values. Large values in the thousands indicate it's a guess and not a confidence rating. 


```r
d %>% 
  select(starts_with("dep_conf_b_III"))
```

```
## # A tibble: 200 × 2
##    dep_conf_b_III_4 dep_conf_b_III
##    <chr>            <chr>         
##  1 <NA>             <NA>          
##  2 <NA>             <NA>          
##  3 <NA>             <NA>          
##  4 <NA>             <NA>          
##  5 <NA>             <NA>          
##  6 <NA>             <NA>          
##  7 <NA>             <NA>          
##  8 1751             4             
##  9 <NA>             <NA>          
## 10 <NA>             <NA>          
## # ℹ 190 more rows
```
…
